<?xml version="1.0" encoding="UTF-8" standalone="no"?>
<svg width="120px" height="62px" viewBox="0 0 120 62" version="1.1" xmlns="http://www.w3.org/2000/svg" xmlns:xlink="http://www.w3.org/1999/xlink">
    <!-- Generator: Sketch 3.6.1 (26313) - http://www.bohemiancoding.com/sketch -->
    <title>logo</title>
    <desc>Created with Sketch.</desc>
    <defs></defs>
    <g id="Page-1" stroke="none" stroke-width="1" fill="none" fill-rule="evenodd">
        <g id="logo" fill="#FFFFFF">
            <g id="Page-1">
                <g id="logo">
                    <g id="Layer_1">
                        <g id="Group">
                            <g id="Shape" transform="translate(49.000000, 9.000000)">
                                <path d="M5.9,4.5 C6.6,4.8 7,5.4 6.9,6.2 C6.7,7.7 5.1,8.7 2.9,8.7 C2,8.7 1,8.6 0.4,8.5 L3.1,0.8 C3.7,0.7 4.4,0.7 5.1,0.7 C7.1,0.7 8.2,1.4 8,2.7 C7.8,3.4 6.9,4.1 5.9,4.5 L5.9,4.5 L5.9,4.5 Z M3.6,5.1 L3.2,5.1 L2.6,6.9 L3.3,6.9 C4.1,6.9 4.8,6.6 4.9,5.9 C5,5.4 4.5,5.1 3.6,5.1 L3.6,5.1 L3.6,5.1 Z M4.8,2.1 L4.3,2.1 L3.7,3.8 L4.3,3.8 C5.1,3.8 5.8,3.4 5.9,2.8 C6,2.4 5.5,2.1 4.8,2.1 L4.8,2.1 L4.8,2.1 Z"></path>
                                <path d="M17.7,5.6 C17,7.6 15.6,8.7 13.7,8.7 C11.9,8.7 10.9,7.8 11.1,6.1 C11.1,5.8 11.2,5.5 11.4,5.1 L13,0.6 L14.8,0.6 L13.2,5.1 C13.2,5.2 13.1,5.6 13,5.8 C12.9,6.6 13.2,7 14,7 C14.9,7 15.5,6.5 15.9,5.3 L17.6,0.6 L19.4,0.6 L17.7,5.6 L17.7,5.6 L17.7,5.6 Z"></path>
                                <path d="M22.9,8.5 L21.1,8.5 L23.9,0.6 L25.7,0.6 L22.9,8.5 L22.9,8.5 L22.9,8.5 Z"></path>
                                <path d="M32.4,8.5 L27.5,8.5 L30.3,0.6 L32.1,0.6 L29.9,6.9 L32.9,6.9 L32.4,8.5 L32.4,8.5 L32.4,8.5 Z"></path>
                                <path d="M43.1,2.3 L40.8,2.3 L38.6,8.5 L36.8,8.5 L39,2.3 L36.7,2.3 L37.3,0.6 L43.7,0.6 L43.1,2.3 L43.1,2.3 L43.1,2.3 Z"></path>
                                <path d="M55.4,4.5 C56.1,4.8 56.5,5.4 56.4,6.2 C56.2,7.7 54.6,8.7 52.4,8.7 C51.5,8.7 50.5,8.6 49.9,8.5 L52.6,0.8 C53.2,0.7 53.9,0.7 54.6,0.7 C56.6,0.7 57.7,1.4 57.5,2.7 C57.3,3.4 56.5,4.1 55.4,4.5 L55.4,4.5 L55.4,4.5 Z M53.2,5.1 L52.8,5.1 L52.2,6.9 L52.9,6.9 C53.7,6.9 54.4,6.6 54.5,5.9 C54.6,5.4 54,5.1 53.2,5.1 L53.2,5.1 L53.2,5.1 Z M54.4,2.1 L53.9,2.1 L53.3,3.8 L53.9,3.8 C54.7,3.8 55.4,3.4 55.5,2.8 C55.5,2.4 55.1,2.1 54.4,2.1 L54.4,2.1 L54.4,2.1 Z"></path>
                                <path d="M64.3,5.4 L63.2,8.5 L61.4,8.5 L62.5,5.4 L61.5,0.6 L63.6,0.6 L64.1,3.6 L66.7,0.6 L68.8,0.6 L64.3,5.4 L64.3,5.4 L64.3,5.4 Z"></path>
                            </g>
                            <path d="M17.9,51.8 C17.7,52.6 16.9,53 16.1,52.8 C12.9,52 11.4,49.4 11,44.3 C10.9,42.7 10.9,40.8 11.2,38.5 L12.9,22.7 C13.2,19.9 13.5,17.5 13.4,16.2 C13.3,14.6 12.8,14 11.7,14 C9.6,14 5.6,16.4 6.7,22.5 C7.3,25.6 9.3,25.7 9.7,28.5 C10.1,31.4 7.6,32.2 5,31.9 C2.4,31.6 0.8,29.8 0.6,26.1 C-0.2,17.9 4.5,10.5 14.7,10.5 C19.7,10.5 22.1,13.3 22.5,18.9 C22.6,20.8 22.5,23.1 22.2,25.9 L20.7,38.5 C20.6,39.5 20.6,40.3 20.5,41.1 C20.4,42.3 20.7,43.5 20.4,44.7 L17.9,51.8 L17.9,51.8 L17.9,51.8 Z" id="Shape"></path>
                            <path d="M25,61.8 L18.6,61.8 C17.7,61.8 17.1,60.9 17.4,60.1 L37.1,2.1 C37.4,1.3 38.1,0.8 38.9,0.8 L45.3,0.8 C46.2,0.8 46.8,1.7 46.5,2.5 L26.8,60.5 C26.6,61.3 25.9,61.8 25,61.8 L25,61.8 L25,61.8 Z" id="Shape"></path>
                            <path d="M117.6,35.8 C116.4,35.6 114.8,36.2 114.6,37.8 C114.5,38.9 114.8,40.4 114.7,41.4 C114.6,42.5 113.9,44.1 113.3,44.7 C111.7,46.3 110.9,46.8 109.4,46.8 C108.4,46.8 107.9,46.3 107.9,45.2 C107.9,44.2 108.4,42.3 109.4,39.6 C110.7,35.9 111.5,33.4 111.5,31.2 C111.5,27.7 109.5,25.9 106.1,25.9 C103.8,25.9 101.5,28.4 98.1,29.4 C97.1,29.7 96.2,29.5 95.2,28.8 C93.8,27.8 92.2,26.2 89.4,26 C88.9,26 88.4,26.3 88.2,26.8 L85.8,37 L85.8,37 L85.8,37 C85.2,39.7 84.2,42 82.9,43.9 C81.6,45.8 80.3,46.8 78.9,46.8 C78,46.8 77.6,46.3 77.6,45.3 C77.6,44.4 77.9,43.2 78.5,41.3 C78.8,40.3 79,39.7 79.1,39.5 C80.2,36 80.7,34.4 80.7,33 C80.7,30.7 79,28.5 73.9,27.1 L69.7,26 C69.2,25.9 69,25.4 69,24.9 C69.1,24 68.6,23.3 67.9,23 C67.2,22.7 65.7,22.7 64.8,23.1 C63.8,23.5 63.2,24.3 62.9,25.2 C62.4,26.8 63,27.9 63.7,28.6 C64.1,29 64.6,29.3 64.9,29.5 C65.2,29.6 65.3,30 65.2,30.3 L63.5,37 L63.5,37 L63.5,37 C61.9,43.7 56,48.1 51.4,48.1 C48.8,48.1 47.3,46.6 46.7,44 C46.7,43.8 46.7,43.6 46.9,43.4 C47.6,43.2 48,43 48,43 L48,43 C55.3,41.2 60.3,36.1 60.3,31.6 C60.3,28.3 57.7,25.8 52.8,25.8 C44.3,25.5 37.6,33.9 37.1,41.2 C37.1,41.5 36.8,41.8 36.5,41.8 L36.2,41.8 C35.8,41.9 35.4,42.2 35.2,42.6 L33.6,47.5 C33.5,47.8 33.8,48.1 34.1,48 C34.8,47.7 35.9,47.3 37.2,46.8 C37.5,46.7 37.8,46.8 37.9,47.1 C39.4,50.5 42.7,52.7 47.8,52.7 C56.7,52.7 63.8,45.9 65.7,37.8 L65.7,37.8 L67.5,30.7 C67.6,30.4 67.9,30.2 68.2,30.3 L69.3,30.6 C70.6,30.9 71.3,31.8 71.3,33.1 C71.3,34.1 70.9,35.9 70,38.5 C69.4,40.3 69,41.7 68.7,42.8 C68.2,44.6 68,46.1 68,47.5 C68,50.7 69.3,52.5 73.5,52.5 C77.5,52.5 80.7,51.1 83.1,48.1 C83.1,48.1 82.8,49.4 82.6,50.3 C82.5,50.8 82.8,51.2 83.3,51.2 L90.4,51.2 C91.1,51.2 91.7,50.7 91.8,50.1 L94.3,39.9 C95.5,34.9 98,32 100.4,32 C101.3,32 101.7,32.5 101.7,33.3 C101.7,34.3 101.1,36.4 100.4,38.4 C99.1,42.3 98.3,45 98.3,47.6 C98.3,50.8 99.7,52.6 103.9,52.6 C106.7,52.6 109.2,51.8 111.4,50.2 C113.6,48.5 115.8,46.4 117.1,44.2 C118.4,42 118.7,41 119.1,39.4 C119.6,37.6 119,36.1 117.6,35.8 L117.6,35.8 L117.6,35.8 Z M52.9,29.4 C54,29.4 54.4,30.4 54.4,31.6 C54.4,34.6 51.6,38.9 47.2,40.2 C46.9,40.3 46.6,40 46.6,39.7 C47.3,34.8 50.3,29.4 52.9,29.4 L52.9,29.4 L52.9,29.4 Z" id="Shape"></path>
                        </g>
                    </g>
                </g>
            </g>
        </g>
    </g>
</svg>